0000.000 (0) Opened log file at time: Thu, 15 Oct 2015 01:54:00 +0000 on http://dev.jollyjumpsandbox.org/blog
0000.001 (0) UpdraftPlus WordPress backup plugin (https://updraftplus.com): 1.11.12 WP: 4.3.1 PHP: 5.4.43 (Linux a2plcpnl0337.prod.iad2.secureserver.net 2.6.32-531.29.2.lve1.3.11.10.el6.x86_64 #1 SMP Fri Jun 12 15:09:02 EDT 2015 x86_64) MySQL: 5.5.42 Server: Apache/2.4.16 safe_mode: 0 max_execution_time: 900 memory_limit: 256M (used: 28.2M | 28.5M) multisite: N mcrypt: Y LANG:  ZipArchive::addFile: Y
0000.212 (0) Free space on disk containing Updraft's temporary directory: 2765080.9 Mb
0000.215 (0) Tasks: Backup files: 1 (schedule: daily) Backup DB:  (schedule: every4hours)
0000.215 (0) Processed schedules. Tasks now: Backup files: 1 Backup DB: 
0000.216 (0) Requesting semaphore lock (f)
0000.217 (0) Semaphore (f) was stuck, set lock time to 2015-10-15 01:54:00
0000.219 (0) Semaphore (f) reset to 1
0000.220 (0) Set semaphore last lock (f) time to 2015-10-15 01:54:00
0000.221 (0) Semaphore lock (f) complete
0000.224 (0) Backup run: resumption=0, nonce=9ec31220f3f7, begun at=1444874040 (0s ago), job type=backup
0000.225 (0) Scheduling a resumption (1) after 300 seconds (1444874340) in case this run gets aborted
0000.226 (0) Checking if we have a zip executable available
0000.229 (0) Testing: /usr/bin/zip
0000.411 (0) Output: zip warning: binziptest/test.zip not found or empty
0000.440 (0) Output: adding: binziptest/subdir1/	(in=0) (out=0) (stored 0%)
0000.441 (0) Output: adding: binziptest/subdir1/subdir2/	(in=0) (out=0) (stored 0%)
0000.442 (0) Output: adding: binziptest/subdir1/subdir2/test.html	(in=128) (out=105) (deflated 18%)
0000.442 (0) Output: total bytes=128, compressed=105 -> 18% savings
0000.448 (0) Output: adding: binziptest/subdir1/subdir2/test2.html	(in=135) (out=111) (deflated 18%)
0000.449 (0) Output: total bytes=263, compressed=216 -> 18% savings
0000.513 (0) Working binary zip found: /usr/bin/zip
0000.660 (0) Zip engine: found/will use a binary zip: /usr/bin/zip
0000.661 (0) Creation of backups of directories: beginning
0000.665 (0) Beginning creation of dump of plugins (split every: 500 Mb)
0001.110 (0) Total entities for the zip file: 328 directories, 1935 files (0 skipped as non-modified), 24.7 Mb
0001.850 (0) Zip: backup_2015-10-15-0154_The_Jump_Blog_9ec31220f3f7-plugins.zip.tmp: 100 files added (on-disk size: 0 Kb)
0001.853 (0) Zip: backup_2015-10-15-0154_The_Jump_Blog_9ec31220f3f7-plugins.zip.tmp: 200 files added (on-disk size: 0 Kb)
0001.856 (0) Zip: backup_2015-10-15-0154_The_Jump_Blog_9ec31220f3f7-plugins.zip.tmp: 300 files added (on-disk size: 0 Kb)
0001.860 (0) Zip: backup_2015-10-15-0154_The_Jump_Blog_9ec31220f3f7-plugins.zip.tmp: 400 files added (on-disk size: 0 Kb)
0001.864 (0) Zip: backup_2015-10-15-0154_The_Jump_Blog_9ec31220f3f7-plugins.zip.tmp: 500 files added (on-disk size: 0 Kb)
0001.865 (0) Adding batch to zip file (UpdraftPlus_BinZip): over 500 files added on this batch (3.3 Mb, 1935 files batched, 501 (501) added so far); re-opening (prior size: 0 Kb)
0005.714 (0) backup_2015-10-15-0154_The_Jump_Blog_9ec31220f3f7-plugins.zip.tmp: size is now: 1.50 Mb
0005.720 (0) Zip: backup_2015-10-15-0154_The_Jump_Blog_9ec31220f3f7-plugins.zip.tmp: 600 files added (on-disk size: 1508.1 Kb)
0005.723 (0) Zip: backup_2015-10-15-0154_The_Jump_Blog_9ec31220f3f7-plugins.zip.tmp: 700 files added (on-disk size: 1508.1 Kb)
0005.726 (0) Zip: backup_2015-10-15-0154_The_Jump_Blog_9ec31220f3f7-plugins.zip.tmp: 800 files added (on-disk size: 1508.1 Kb)
0005.729 (0) Zip: backup_2015-10-15-0154_The_Jump_Blog_9ec31220f3f7-plugins.zip.tmp: 900 files added (on-disk size: 1508.1 Kb)
0005.733 (0) Zip: backup_2015-10-15-0154_The_Jump_Blog_9ec31220f3f7-plugins.zip.tmp: 1000 files added (on-disk size: 1508.1 Kb)
0005.734 (0) Adding batch to zip file (UpdraftPlus_BinZip): over 500 files added on this batch (2.2 Mb, 1935 files batched, 501 (1002) added so far); re-opening (prior size: 1508.1 Kb)
0009.338 (0) backup_2015-10-15-0154_The_Jump_Blog_9ec31220f3f7-plugins.zip.tmp: size is now: 2.30 Mb
0009.343 (0) Zip: backup_2015-10-15-0154_The_Jump_Blog_9ec31220f3f7-plugins.zip.tmp: 1100 files added (on-disk size: 2354.6 Kb)
0009.347 (0) Zip: backup_2015-10-15-0154_The_Jump_Blog_9ec31220f3f7-plugins.zip.tmp: 1200 files added (on-disk size: 2354.6 Kb)
0009.351 (0) Zip: backup_2015-10-15-0154_The_Jump_Blog_9ec31220f3f7-plugins.zip.tmp: 1300 files added (on-disk size: 2354.6 Kb)
0009.360 (0) Zip: backup_2015-10-15-0154_The_Jump_Blog_9ec31220f3f7-plugins.zip.tmp: 1400 files added (on-disk size: 2354.6 Kb)
0009.370 (0) Zip: backup_2015-10-15-0154_The_Jump_Blog_9ec31220f3f7-plugins.zip.tmp: 1500 files added (on-disk size: 2354.6 Kb)
0009.371 (0) Adding batch to zip file (UpdraftPlus_BinZip): over 500 files added on this batch (15.5 Mb, 1935 files batched, 501 (1503) added so far); re-opening (prior size: 2354.6 Kb)
0025.418 (0) backup_2015-10-15-0154_The_Jump_Blog_9ec31220f3f7-plugins.zip.tmp: size is now: 6.90 Mb
0025.423 (0) Zip: backup_2015-10-15-0154_The_Jump_Blog_9ec31220f3f7-plugins.zip.tmp: 1600 files added (on-disk size: 7107.8 Kb)
0025.427 (0) Zip: backup_2015-10-15-0154_The_Jump_Blog_9ec31220f3f7-plugins.zip.tmp: 1700 files added (on-disk size: 7107.8 Kb)
0025.431 (0) Zip: backup_2015-10-15-0154_The_Jump_Blog_9ec31220f3f7-plugins.zip.tmp: 1800 files added (on-disk size: 7107.8 Kb)
0025.434 (0) Zip: backup_2015-10-15-0154_The_Jump_Blog_9ec31220f3f7-plugins.zip.tmp: 1900 files added (on-disk size: 7107.8 Kb)
0052.997 (0) backup_2015-10-15-0154_The_Jump_Blog_9ec31220f3f7-plugins.zip.tmp: size is now: 9.70 Mb
0053.063 (0) Created plugins zip (0) - 9916.2 Kb in 52.1 s (190.2 Kb/s) (SHA1 checksum: b5f2f8a1a246ef6f34a6d2879310a3b5f64efd5e)
0053.065 (0) Beginning creation of dump of themes (split every: 500 Mb)
0053.330 (0) Total entities for the zip file: 84 directories, 307 files (0 skipped as non-modified), 3.2 Mb
0053.359 (0) Zip: backup_2015-10-15-0154_The_Jump_Blog_9ec31220f3f7-themes.zip.tmp: 100 files added (on-disk size: 0 Kb)
0053.362 (0) Zip: backup_2015-10-15-0154_The_Jump_Blog_9ec31220f3f7-themes.zip.tmp: 200 files added (on-disk size: 0 Kb)
0053.365 (0) Zip: backup_2015-10-15-0154_The_Jump_Blog_9ec31220f3f7-themes.zip.tmp: 300 files added (on-disk size: 0 Kb)
0059.751 (0) backup_2015-10-15-0154_The_Jump_Blog_9ec31220f3f7-themes.zip.tmp: size is now: 2.30 Mb
0059.790 (0) Created themes zip (0) - 2306.1 Kb in 6.5 s (353.3 Kb/s) (SHA1 checksum: d52d4df08ade2bed04c4a299f39b7ce4a7584cdb)
0059.793 (0) Exclusion option setting (uploads): backup*,*backups,backwpup*,wp-clone
0059.794 (0) Looking for candidates to back up in: /home/debsjump/public_html/dev/blog/wp-content/uploads
0059.794 (0) finding files: 2015: adding to list (1)
0059.795 (0) Beginning creation of dump of uploads (split every: 500 Mb)
0060.030 (0) Total entities for the zip file: 2 directories, 523 files (0 skipped as non-modified), 18.2 Mb
0060.034 (0) Zip: backup_2015-10-15-0154_The_Jump_Blog_9ec31220f3f7-uploads.zip.tmp: 100 files added (on-disk size: 0 Kb)
0060.038 (0) Zip: backup_2015-10-15-0154_The_Jump_Blog_9ec31220f3f7-uploads.zip.tmp: 200 files added (on-disk size: 0 Kb)
0060.044 (0) Zip: backup_2015-10-15-0154_The_Jump_Blog_9ec31220f3f7-uploads.zip.tmp: 300 files added (on-disk size: 0 Kb)
0060.047 (0) Zip: backup_2015-10-15-0154_The_Jump_Blog_9ec31220f3f7-uploads.zip.tmp: 400 files added (on-disk size: 0 Kb)
0060.051 (0) Zip: backup_2015-10-15-0154_The_Jump_Blog_9ec31220f3f7-uploads.zip.tmp: 500 files added (on-disk size: 0 Kb)
0060.052 (0) Adding batch to zip file (UpdraftPlus_BinZip): over 500 files added on this batch (16.6 Mb, 523 files batched, 501 (501) added so far); re-opening (prior size: 0 Kb)
0094.630 (0) backup_2015-10-15-0154_The_Jump_Blog_9ec31220f3f7-uploads.zip.tmp: size is now: 16.70 Mb
0114.760 (0) Created uploads zip (0) - 18767.9 Kb in 54.7 s (342.8 Kb/s) (SHA1 checksum: 01c971c8e1af40cb9b9bb1b0382b61d982519b53)
0114.762 (0) Beginning backup of other directories found in the content directory (index: 0)
0114.762 (0) Exclusion option setting (others): upgrade,cache,updraft,backup*,*backups,mysql.sql
0114.763 (0) Looking for candidates to back up in: /home/debsjump/public_html/dev/blog/wp-content
0114.764 (0) finding files: plugins: skipping: this is the plugins directory
0114.764 (0) finding files: upgrade: skipping: excluded by options
0114.765 (0) finding files: index.php: adding to list (1)
0114.765 (0) finding files: themes: skipping: this is the themes directory
0114.766 (0) finding files: updraft: skipping: this is the updraft directory
0114.766 (0) finding files: uploads: skipping: this is the uploads directory
0114.963 (0) Total entities for the zip file: 0 directories, 1 files (0 skipped as non-modified), 0 Mb
0114.977 (0) backup_2015-10-15-0154_The_Jump_Blog_9ec31220f3f7-others.zip.tmp: size is now: 0.00 Mb
0114.979 (0) Created others zip (0) - 0.2 Kb in 0 s (10.2 Kb/s) (SHA1 checksum: a0c603c67c82e295614bc06cb85f2d95e20567ae)
0114.983 (0) Saving backup status to database (elements: 8)
0114.985 (0) No database backup (wp) - not part of this run
0114.986 (0) Saving backup history
0114.987 (0) backup_2015-10-15-0154_The_Jump_Blog_9ec31220f3f7-plugins.zip: plugins: This file has not yet been successfully uploaded: will queue
0114.988 (0) backup_2015-10-15-0154_The_Jump_Blog_9ec31220f3f7-themes.zip: themes: This file has not yet been successfully uploaded: will queue
0114.989 (0) backup_2015-10-15-0154_The_Jump_Blog_9ec31220f3f7-uploads.zip: uploads: This file has not yet been successfully uploaded: will queue
0114.989 (0) backup_2015-10-15-0154_The_Jump_Blog_9ec31220f3f7-others.zip: others: This file has not yet been successfully uploaded: will queue
0114.991 (0) Requesting upload of the files that have not yet been successfully uploaded (4)
0114.993 (0) Cloud backup selection (1/1): none (last)
0114.993 (0) No remote despatch: user chose no remote backup service
0114.995 (0) Recording as successfully uploaded: backup_2015-10-15-0154_The_Jump_Blog_9ec31220f3f7-plugins.zip (96cf5f95c07cbe9118ab44e97c86ab00)
0114.998 (0) Recording as successfully uploaded: backup_2015-10-15-0154_The_Jump_Blog_9ec31220f3f7-themes.zip (800ecdebfe4309189b2426bcad42bc3f)
0115.001 (0) Recording as successfully uploaded: backup_2015-10-15-0154_The_Jump_Blog_9ec31220f3f7-uploads.zip (6f21c4db528acbd618d6890cb4e5663c)
0115.005 (0) Recording as successfully uploaded: backup_2015-10-15-0154_The_Jump_Blog_9ec31220f3f7-others.zip (7ecbf36f7b577b073dad32b665acfa98)
0115.008 (0) Retain: beginning examination of existing backup sets; user setting: retain_files=2, retain_db=2
0115.009 (0) Number of backup sets in history: 5
0115.009 (0) Examining backup set with datestamp: 1444874040 (Oct 15 2015 01:54:00)
0115.010 (0) 1444874040: this backup set remains non-empty (1/0); will retain in history
0115.011 (0) Examining backup set with datestamp: 1444874038 (Oct 15 2015 01:53:58)
0115.011 (0) 1444874038: this backup set remains non-empty (0/1); will retain in history
0115.012 (0) Examining backup set with datestamp: 1444790313 (Oct 14 2015 02:38:33)
0115.012 (0) 1444790313: this backup set remains non-empty (0/1); will retain in history
0115.013 (0) Examining backup set with datestamp: 1444680798 (Oct 12 2015 20:13:18)
0115.013 (0) 1444680798: this backup set remains non-empty (1/0); will retain in history
0115.014 (0) Examining backup set with datestamp: 1444551377 (Oct 11 2015 08:16:17)
0115.015 (0) plugins: 1444551377: over retain limit (2); will delete this file (backup_2015-10-11-0816_The_Jump_Blog_1f94bdfdd76d-plugins.zip)
0115.015 (0) themes: 1444551377: over retain limit (2); will delete this file (backup_2015-10-11-0816_The_Jump_Blog_1f94bdfdd76d-themes.zip)
0115.016 (0) uploads: 1444551377: over retain limit (2); will delete this file (backup_2015-10-11-0816_The_Jump_Blog_1f94bdfdd76d-uploads.zip)
0115.016 (0) others: 1444551377: over retain limit (2); will delete this file (backup_2015-10-11-0816_The_Jump_Blog_1f94bdfdd76d-others.zip)
0115.017 (0) Delete file: backup_2015-10-11-0816_The_Jump_Blog_1f94bdfdd76d-plugins.zip, service=none
0115.017 (0) Delete file: backup_2015-10-11-0816_The_Jump_Blog_1f94bdfdd76d-themes.zip, service=none
0115.018 (0) Delete file: backup_2015-10-11-0816_The_Jump_Blog_1f94bdfdd76d-uploads.zip, service=none
0115.019 (0) Deleting local copy (backup_2015-10-11-0816_The_Jump_Blog_1f94bdfdd76d-uploads.zip)
0115.030 (0) Delete file: backup_2015-10-11-0816_The_Jump_Blog_1f94bdfdd76d-others.zip, service=none
0115.030 (0) Deleting local copy (backup_2015-10-11-0816_The_Jump_Blog_1f94bdfdd76d-others.zip)
0115.032 (0) 1444551377: this backup set is now empty; will remove from history
0115.032 (0) 1444551377: deleting log file (log.1f94bdfdd76d.txt)
0115.033 (0) Retain: saving new backup history (sets now: 4) and finishing retain operation
0115.035 (0) Resume backup (9ec31220f3f7, 0): finish run
0115.037 (0) Decremented the semaphore (f) by 1
0115.037 (0) Semaphore (f) unlocked
0115.038 (0) There were no errors in the uploads, so the 'resume' event (1) is being unscheduled
0115.040 (0) No email will/can be sent - the user has not configured an email address.
0115.041 (0) The backup apparently succeeded and is now complete
