0000.000 (0) Opened log file at time: Sat, 17 Oct 2015 17:37:03 +0000 on http://dev.jollyjumpsandbox.org/blog
0000.004 (0) UpdraftPlus WordPress backup plugin (https://updraftplus.com): 1.11.12 WP: 4.3.1 PHP: 5.4.43 (Linux a2plcpnl0337.prod.iad2.secureserver.net 2.6.32-531.29.2.lve1.3.11.10.el6.x86_64 #1 SMP Fri Jun 12 15:09:02 EDT 2015 x86_64) MySQL: 5.5.42 Server: Apache/2.4.16 safe_mode: 0 max_execution_time: 900 memory_limit: 256M (used: 35.3M | 35.8M) multisite: N mcrypt: Y LANG:  ZipArchive::addFile: Y
0000.201 (0) Free space on disk containing Updraft's temporary directory: 2749602.3 Mb
0000.204 (0) Tasks: Backup files: 0 (schedule: manual) Backup DB: 1 (schedule: every4hours)
0000.212 (0) Requesting semaphore lock (d)
0000.213 (0) Semaphore (d) was stuck, set lock time to 2015-10-17 17:37:03
0000.215 (0) Semaphore (d) reset to 1
0000.216 (0) Set semaphore last lock (d) time to 2015-10-17 17:37:03
0000.216 (0) Semaphore lock (d) complete
0000.220 (0) Backup run: resumption=0, nonce=52c3391ffc05, begun at=1445103423 (0s ago), job type=backup
0000.221 (0) Scheduling a resumption (1) after 300 seconds (1445103723) in case this run gets aborted
0000.234 (0) This backup run is not intended for files - skipping
0000.237 (0) Beginning creation of database dump (WordPress DB)
0000.239 (0) Testing: /usr/bin/mysqldump
0000.257 (0) Working binary mysqldump found: /usr/bin/mysqldump
0000.262 (0) Table wp_options: Total expected rows (approximate): 300
0000.303 (0) Table wp_options: Total rows added: 299 in 0.04 seconds
0000.304 (0) Table wp_options: finishing file (backup_2015-10-17-1737_The_Jump_Blog_52c3391ffc05-db-table-wp_options.table.gz - 102.5 Kb)
0000.307 (0) Table wp_users: Total expected rows (approximate): 1
0000.311 (0) Table wp_users: Total rows added: 1 in 0.00 seconds
0000.312 (0) Table wp_users: finishing file (backup_2015-10-17-1737_The_Jump_Blog_52c3391ffc05-db-table-wp_users.table.gz - 0.6 Kb)
0000.314 (0) Table wp_usermeta: Total expected rows (approximate): 25
0000.317 (0) Table wp_usermeta: Total rows added: 25 in 0.00 seconds
0000.318 (0) Table wp_usermeta: finishing file (backup_2015-10-17-1737_The_Jump_Blog_52c3391ffc05-db-table-wp_usermeta.table.gz - 1.4 Kb)
0000.321 (0) Table wp_commentmeta: Total expected rows (approximate): 3
0000.325 (0) Table wp_commentmeta: Total rows added: 3 in 0.00 seconds
0000.326 (0) Table wp_commentmeta: finishing file (backup_2015-10-17-1737_The_Jump_Blog_52c3391ffc05-db-table-wp_commentmeta.table.gz - 0.4 Kb)
0000.329 (0) Table wp_comments: Total expected rows (approximate): 4
0000.332 (0) Table wp_comments: Total rows added: 4 in 0.00 seconds
0000.333 (0) Table wp_comments: finishing file (backup_2015-10-17-1737_The_Jump_Blog_52c3391ffc05-db-table-wp_comments.table.gz - 1.3 Kb)
0000.336 (0) Table wp_links: Total expected rows (approximate): 7
0000.338 (0) Table wp_links: Total rows added: 7 in 0.00 seconds
0000.339 (0) Table wp_links: finishing file (backup_2015-10-17-1737_The_Jump_Blog_52c3391ffc05-db-table-wp_links.table.gz - 0.6 Kb)
0000.343 (0) Table wp_postmeta: Total expected rows (approximate): 360
0000.353 (0) Table wp_postmeta: Total rows added: 360 in 0.01 seconds
0000.354 (0) Table wp_postmeta: finishing file (backup_2015-10-17-1737_The_Jump_Blog_52c3391ffc05-db-table-wp_postmeta.table.gz - 10.3 Kb)
0000.357 (0) Table wp_posts: Total expected rows (approximate): 297
0000.404 (0) Table wp_posts: Total rows added: 297 in 0.05 seconds
0000.405 (0) Table wp_posts: finishing file (backup_2015-10-17-1737_The_Jump_Blog_52c3391ffc05-db-table-wp_posts.table.gz - 52.1 Kb)
0000.409 (0) Table wp_term_relationships: Total expected rows (approximate): 25
0000.414 (0) Table wp_term_relationships: Total rows added: 25 in 0.00 seconds
0000.415 (0) Table wp_term_relationships: finishing file (backup_2015-10-17-1737_The_Jump_Blog_52c3391ffc05-db-table-wp_term_relationships.table.gz - 0.4 Kb)
0000.419 (0) Table wp_term_taxonomy: Total expected rows (approximate): 6
0000.425 (0) Table wp_term_taxonomy: Total rows added: 6 in 0.01 seconds
0000.426 (0) Table wp_term_taxonomy: finishing file (backup_2015-10-17-1737_The_Jump_Blog_52c3391ffc05-db-table-wp_term_taxonomy.table.gz - 0.5 Kb)
0000.431 (0) Table wp_terms: Total expected rows (approximate): 6
0000.444 (0) Table wp_terms: Total rows added: 6 in 0.01 seconds
0000.445 (0) Table wp_terms: finishing file (backup_2015-10-17-1737_The_Jump_Blog_52c3391ffc05-db-table-wp_terms.table.gz - 0.5 Kb)
0000.452 (0) Table wp_mts_wp_reviews: Total expected rows (approximate): 0
0000.456 (0) Table wp_mts_wp_reviews: Total rows added: 0 in 0.00 seconds
0000.457 (0) Table wp_mts_wp_reviews: finishing file (backup_2015-10-17-1737_The_Jump_Blog_52c3391ffc05-db-table-wp_mts_wp_reviews.table.gz - 0.3 Kb)
0000.461 (0) Table wp_nf_objectmeta: Total expected rows (approximate): 75
0000.468 (0) Table wp_nf_objectmeta: Total rows added: 75 in 0.01 seconds
0000.469 (0) Table wp_nf_objectmeta: finishing file (backup_2015-10-17-1737_The_Jump_Blog_52c3391ffc05-db-table-wp_nf_objectmeta.table.gz - 1.1 Kb)
0000.474 (0) Table wp_nf_objects: Total expected rows (approximate): 4
0000.478 (0) Table wp_nf_objects: Total rows added: 4 in 0.00 seconds
0000.480 (0) Table wp_nf_objects: finishing file (backup_2015-10-17-1737_The_Jump_Blog_52c3391ffc05-db-table-wp_nf_objects.table.gz - 0.3 Kb)
0000.484 (0) Table wp_nf_relationships: Total expected rows (approximate): 3
0000.489 (0) Table wp_nf_relationships: Total rows added: 3 in 0.00 seconds
0000.490 (0) Table wp_nf_relationships: finishing file (backup_2015-10-17-1737_The_Jump_Blog_52c3391ffc05-db-table-wp_nf_relationships.table.gz - 0.4 Kb)
0000.504 (0) Table wp_ninja_forms_fav_fields: Total expected rows (approximate): 17
0000.610 (0) Table wp_ninja_forms_fav_fields: Total rows added: 17 in 0.01 seconds
0000.612 (0) Table wp_ninja_forms_fav_fields: finishing file (backup_2015-10-17-1737_The_Jump_Blog_52c3391ffc05-db-table-wp_ninja_forms_fav_fields.table.gz - 2.6 Kb)
0000.617 (0) Table wp_ninja_forms_fields: Total expected rows (approximate): 5
0000.622 (0) Table wp_ninja_forms_fields: Total rows added: 5 in 0.00 seconds
0000.623 (0) Table wp_ninja_forms_fields: finishing file (backup_2015-10-17-1737_The_Jump_Blog_52c3391ffc05-db-table-wp_ninja_forms_fields.table.gz - 0.8 Kb)
0000.627 (0) backup_2015-10-17-1737_The_Jump_Blog_52c3391ffc05-db-table-wp_options.table.gz (1/17): adding to final database dump
0000.658 (0) backup_2015-10-17-1737_The_Jump_Blog_52c3391ffc05-db-table-wp_users.table.gz (2/17): adding to final database dump
0000.659 (0) backup_2015-10-17-1737_The_Jump_Blog_52c3391ffc05-db-table-wp_usermeta.table.gz (3/17): adding to final database dump
0000.661 (0) backup_2015-10-17-1737_The_Jump_Blog_52c3391ffc05-db-table-wp_commentmeta.table.gz (4/17): adding to final database dump
0000.662 (0) backup_2015-10-17-1737_The_Jump_Blog_52c3391ffc05-db-table-wp_comments.table.gz (5/17): adding to final database dump
0000.663 (0) backup_2015-10-17-1737_The_Jump_Blog_52c3391ffc05-db-table-wp_links.table.gz (6/17): adding to final database dump
0000.664 (0) backup_2015-10-17-1737_The_Jump_Blog_52c3391ffc05-db-table-wp_postmeta.table.gz (7/17): adding to final database dump
0000.669 (0) backup_2015-10-17-1737_The_Jump_Blog_52c3391ffc05-db-table-wp_posts.table.gz (8/17): adding to final database dump
0000.700 (0) backup_2015-10-17-1737_The_Jump_Blog_52c3391ffc05-db-table-wp_term_relationships.table.gz (9/17): adding to final database dump
0000.705 (0) backup_2015-10-17-1737_The_Jump_Blog_52c3391ffc05-db-table-wp_term_taxonomy.table.gz (10/17): adding to final database dump
0000.712 (0) backup_2015-10-17-1737_The_Jump_Blog_52c3391ffc05-db-table-wp_terms.table.gz (11/17): adding to final database dump
0000.714 (0) backup_2015-10-17-1737_The_Jump_Blog_52c3391ffc05-db-table-wp_mts_wp_reviews.table.gz (12/17): adding to final database dump
0000.715 (0) backup_2015-10-17-1737_The_Jump_Blog_52c3391ffc05-db-table-wp_nf_objectmeta.table.gz (13/17): adding to final database dump
0000.718 (0) backup_2015-10-17-1737_The_Jump_Blog_52c3391ffc05-db-table-wp_nf_objects.table.gz (14/17): adding to final database dump
0000.720 (0) backup_2015-10-17-1737_The_Jump_Blog_52c3391ffc05-db-table-wp_nf_relationships.table.gz (15/17): adding to final database dump
0000.721 (0) backup_2015-10-17-1737_The_Jump_Blog_52c3391ffc05-db-table-wp_ninja_forms_fav_fields.table.gz (16/17): adding to final database dump
0000.722 (0) backup_2015-10-17-1737_The_Jump_Blog_52c3391ffc05-db-table-wp_ninja_forms_fields.table.gz (17/17): adding to final database dump
0000.724 (0) backup_2015-10-17-1737_The_Jump_Blog_52c3391ffc05-db.gz: finished writing out complete database file (144 Kb)
0000.728 (0) Total database tables backed up: 17 (backup_2015-10-17-1737_The_Jump_Blog_52c3391ffc05-db.gz, size: 176130, checksum (SHA1): 012c7f52f184abaec6b49398c16ec844aa332373)
0000.730 (0) Saving backup history
0000.734 (0) backup_2015-10-17-1737_The_Jump_Blog_52c3391ffc05-db.gz: db: This file has not yet been successfully uploaded: will queue
0000.735 (0) Requesting upload of the files that have not yet been successfully uploaded (1)
0000.737 (0) Cloud backup selection (1/1): none (last)
0000.738 (0) No remote despatch: user chose no remote backup service
0000.741 (0) Recording as successfully uploaded: backup_2015-10-17-1737_The_Jump_Blog_52c3391ffc05-db.gz (ca4fc5ba0ef853bf79b72ecfc83be1f0)
0000.744 (0) Retain: beginning examination of existing backup sets; user setting: retain_files=2, retain_db=4
0000.745 (0) Number of backup sets in history: 4
0000.746 (0) Examining backup set with datestamp: 1445103423 (Oct 17 2015 17:37:03)
0000.746 (0) 1445103423: this backup set remains non-empty (0/1); will retain in history
0000.747 (0) Examining backup set with datestamp: 1445096485 (Oct 17 2015 15:41:25)
0000.748 (0) 1445096485: this backup set remains non-empty (0/1); will retain in history
0000.748 (0) Examining backup set with datestamp: 1445080464 (Oct 17 2015 11:14:24)
0000.749 (0) 1445080464: this backup set remains non-empty (0/1); will retain in history
0000.750 (0) Examining backup set with datestamp: 1445021915 (Oct 16 2015 18:58:35)
0000.750 (0) 1445021915: this backup set remains non-empty (1/0); will retain in history
0000.751 (0) Retain: saving new backup history (sets now: 4) and finishing retain operation
0000.754 (0) Resume backup (52c3391ffc05, 0): finish run
0000.755 (0) Decremented the semaphore (d) by 1
0000.756 (0) Semaphore (d) unlocked
0000.757 (0) There were no errors in the uploads, so the 'resume' event (1) is being unscheduled
0000.760 (0) No email will/can be sent - the user has not configured an email address.
0000.760 (0) The backup apparently succeeded and is now complete
